Bernie Sanders - Análissi exploratorio
…
freq_tweets_usuario <- get_tweet_distribution(sanders) 

freq_tweets_usuario %>% 
  arrange(desc(tweets)) %>% 
  mutate(tweets_acum = cumsum(tweets), 
         usuarios_acum = cumsum(usuarios)) %>% 
  mutate(por_tweets_acum = tweets_acum / sum(tweets), 
         por_usuarios_acum = usuarios_acum / sum(usuarios)) %>% 
  mutate(int_users_acum = cut(por_usuarios_acum, breaks = seq(0, 1, by = 0.05))) %>% 
  group_by(comunidad, int_users_acum) %>%  
  summarise(porc_tweets = sum(porc_tweets)) %>% 
  mutate(porc_tweets_acum = cumsum(porc_tweets)) 

## # A tibble: 26 x 4
## # Groups:   comunidad [4]
##    comunidad   int_users_acum porc_tweets porc_tweets_acum
##    <fct>       <fct>                <dbl>            <dbl>
##  1 GOP         (0,0.05]          0.994               0.994
##  2 GOP         (0.05,0.1]        0.00367             0.998
##  3 GOP         (0.1,0.15]        0.00122             0.999
##  4 GOP         (0.25,0.3]        0.000815            1.00 
##  5 GOP         (0.95,1]          0.000407            1.00 
##  6 Independent (0,0.05]          0.997               0.997
##  7 Independent (0.05,0.1]        0.00173             0.999
##  8 Independent (0.1,0.15]        0.000384            0.999
##  9 Independent (0.15,0.2]        0.000288            1.00 
## 10 Independent (0.25,0.3]        0.000192            1.00 
## # ... with 16 more rows
…
