Tara reade - Análisis exploratorio
…
freq_tweets_usuario <- get_tweet_distribution(tara) 

freq_tweets_usuario %>% 
  arrange(desc(tweets)) %>% 
  mutate(tweets_acum = cumsum(tweets), 
         usuarios_acum = cumsum(usuarios)) %>% 
  mutate(por_tweets_acum = tweets_acum / sum(tweets), 
         por_usuarios_acum = usuarios_acum / sum(usuarios)) %>% 
  mutate(int_users_acum = cut(por_usuarios_acum, breaks = seq(0, 1, by = 0.05))) %>% 
  group_by(comunidad, int_users_acum) %>%  
  summarise(porc_tweets = sum(porc_tweets)) %>% 
  mutate(porc_tweets_acum = cumsum(porc_tweets)) 

## # A tibble: 28 x 4
## # Groups:   comunidad [4]
##    comunidad   int_users_acum porc_tweets porc_tweets_acum
##    <fct>       <fct>                <dbl>            <dbl>
##  1 GOP         (0,0.05]          0.985               0.985
##  2 GOP         (0.05,0.1]        0.0105              0.995
##  3 GOP         (0.1,0.15]        0.00140             0.996
##  4 GOP         (0.15,0.2]        0.00117             0.998
##  5 GOP         (0.2,0.25]        0.000935            0.999
##  6 GOP         (0.25,0.3]        0.000701            0.999
##  7 GOP         (0.45,0.5]        0.000468            1.00 
##  8 GOP         (0.95,1]          0.000234            1    
##  9 Independent (0,0.05]          0.994               0.994
## 10 Independent (0.05,0.1]        0.00353             0.997
## # ... with 18 more rows
…
